{
    "config": {  // optional
        "inhale_directives_args": {},
        "inhale_show_inheritance": true,
        "inhale_show_base_types": true,
        "inhale_show_derived_types": true,
        "project": "test_project"
    },
    "compound": "myawesomebaseclass",
    "storage": {
        "compounds": [
            {
                "name": "MyAwesomeBaseClass",
                "refid": "myawesomebaseclass",
                "type": "class"
            },
            {
                "name": "MyAwesomeClass",
                "refid": "myawesomeclass",
                "type": "class"
            },
            {
                "name": "my_awesome_base_class.hpp",
                "refid": "my_awesome_base_class_hpp",
                "type": "file"
            },
            {
                "name": "my_awesome_class.hpp",
                "refid": "my_awesome_class_hpp",
                "type": "file"
            }
        ],
        "files": {  // optional
            "includes": {  // required
                "my_awesome_class_hpp": ["my_awesome_base_class_hpp"]
            },
            "includer": {  // optional
                "my_awesome_base_class_hpp": ["my_awesome_class_hpp"]
            }
        },
        "inheritance": {  // optional
            "bases": {
                "myawesomeclass": ["myawesomebaseclass"]
            },
            "derivatives": {
                "myawesomebaseclass": ["myawesomeclass"]
            }
        },
        "relations": [  // optional
            ["my_awesome_base_class_hpp", "myawesomebaseclass"],
            ["my_awesome_class_hpp", "myawesomeclass"]
        ]
    }
}
