{
    "compound": "utils_8hpp",
    "storage": {
        "compounds": [
            {
                "name": "utils.hpp",
                "refid": "utils_8hpp",
                "type": "file",
                "lang": "cpp",
                "path": "example/utils.hpp"
            }
        ]
    }
}
