{
    "compound": "utils_8hpp",
    "storage": {
        "compounds": [
            {
                "name": "common.hpp",
                "refid": "common_8hpp",
                "type": "file",
                "lang": "cpp",
                "path": "example/common.hpp"
            },
            {
                "name": "utils.hpp",
                "refid": "utils_8hpp",
                "type": "file",
                "lang": "cpp",
                "path": "example/utils.hpp"
            }
        ],
        "files": {
            "includes": {
                "utils_8hpp": ["common_8hpp"]
            }
        }
    }
}
