{
    "compound": "dir_0001",
    "storage": {
        "compounds": [
            {
                "name": "example",
                "refid": "dir_0001",
                "type": "dir",
                "path": "example"
            },
            {
                "name": "a",
                "refid": "dir_0002",
                "type": "dir",
                "path": "example/a"
            },
            {
                "name": "b",
                "refid": "dir_0003",
                "type": "dir",
                "path": "example/b"
            },
            {
                "name": "utils",
                "refid": "dir_0004",
                "type": "dir",
                "path": "example/tools"
            },
            {
                "name": "tools",
                "refid": "dir_0005",
                "type": "dir",
                "path": "example/tools"
            }
        ],
        "relations": [
            ["dir_0001", "dir_0002"],
            ["dir_0001", "dir_0003"],
            ["dir_0001", "dir_0004"],
            ["dir_0001", "dir_0005"]
        ]
    }
}
